{
  "subcategories": [
    { "sub_id": "1", "measures": [1, 2, 3, 4, 5, 6, 7, 8] },
    { "sub_id": "2", "measures": [1, 3, 4, 9, 10, 5, 7] },
    { "sub_id": "3", "measures": [1, 3, 4, 10, 5, 7] },
    { "sub_id": "4", "measures": [1, 11, 3, 4, 5, 6, 7] },
    { "sub_id": "5", "measures": [1, 11, 3, 4, 5, 6, 7, 12, 13] },
    { "sub_id": "6", "measures": [1, 3, 4, 5, 7] },
    { "sub_id": "7", "measures": [1, 11, 2, 3, 4, 10, 5, 6, 7, 12, 8, 13] },
    { "sub_id": "24", "measures": [1, 3, 4, 5, 12, 14, 13, 15] },
    { "sub_id": "8", "measures": [1, 3, 4, 5, 7, 12, 14, 15] },
    { "sub_id": "9", "measures": [1, 3, 4, 5, 7, 12, 14, 15] },
    { "sub_id": "10", "measures": [1, 3, 4, 5, 7, 12, 14, 15] },
    { "sub_id": "11", "measures": [1, 3, 4, 5, 7, 12, 14, 15] },
    { "sub_id": "12", "measures": [1, 3, 4, 5, 7, 12, 14, 15] },
    { "sub_id": "13", "measures": [1, 3, 4, 5, 7, 12, 14, 15] },
    { "sub_id": "14", "measures": [1, 3, 4, 5, 7, 12, 14, 13, 16, 15] },
    { "sub_id": "15", "measures": [1, 3, 4, 5, 7, 12, 14, 15] },
    { "sub_id": "16", "measures": [1, 3, 4, 5, 7, 12, 14, 15] },
    { "sub_id": "17", "measures": [1, 3, 4, 5, 7, 12, 14, 15] },
    { "sub_id": "18", "measures": [1, 3, 4, 5, 7, 12, 14, 15] },
    { "sub_id": "19", "measures": [1, 3, 4, 5, 7, 12, 14, 15] },
    { "sub_id": "20", "measures": [1, 3, 4, 5, 7, 12, 14, 13, 15] },
    { "sub_id": "21", "measures": [1, 3, 4, 5, 7, 12, 14, 15] },
    { "sub_id": "22", "measures": [1, 3, 4, 5, 7, 12, 14, 13, 15] },
    { "sub_id": "23", "measures": [1, 3, 4, 5, 7, 12, 14, 15] },
    { "sub_id": "25", "measures": [1, 3, 4, 7, 12, 14, 16, 15] },
    { "sub_id": "26", "measures": [1, 2, 3, 4, 7, 12, 14, 13, 15] },
    { "sub_id": "27", "measures": [1, 3, 4, 5, 7, 12, 14, 13, 15] },
    { "sub_id": "28", "measures": [1, 3, 5, 4, 14, 15, 12, 7, 13] },
    { "sub_id": "29", "measures": [1, 3, 4, 5, 7, 12, 14, 13, 15] },
    { "sub_id": "30", "measures": [1, 3, 4, 5, 7, 12, 14, 13, 15] },
    { "sub_id": "31", "measures": [1, 3, 4, 5, 7, 12, 14, 13, 16, 15] },
    { "sub_id": "33", "measures": [1, 2, 3, 4, 15] },
    { "sub_id": "36", "measures": [3, 4, 13] },
    { "sub_id": "37", "measures": [1, 3, 10, 7] },
    { "sub_id": "38", "measures": [3, 4, 7] },
    { "sub_id": "39", "measures": [1, 3, 4, 10, 7] },
    { "sub_id": "40", "measures": [1, 3, 4, 7] },
    { "sub_id": "41", "measures": [1, 2, 3, 4, 5] },
    { "sub_id": "42", "measures": [1, 3, 4, 9, 6, 7] },
    { "sub_id": "43", "measures": [1, 3, 4, 7] },
    { "sub_id": "44", "measures": [1, 3, 17, 12, 15, 18, 19, 20] },
    { "sub_id": "45", "measures": [3, 4] },
    { "sub_id": "46", "measures": [1, 3, 12, 20] },
    { "sub_id": "47", "measures": [1, 3, 7] },
    { "sub_id": "48", "measures": [1, 3, 4, 7] },
    { "sub_id": "50", "measures": [3, 4, 7] },
    { "sub_id": "51", "measures": [1, 3, 4] },
    { "sub_id": "52", "measures": [1, 3, 4, 18, 19] },
    { "sub_id": "53", "measures": [1, 2, 3, 4, 7] },
    { "sub_id": "54", "measures": [1, 3, 7, 21] },
    { "sub_id": "55", "measures": [1, 3, 4, 7] },
    { "sub_id": "57", "measures": [1, 3, 4, 7, 12] },
    { "sub_id": "58", "measures": [1, 3, 4, 5] },
    { "sub_id": "59", "measures": [1, 3, 4, 7] },
    { "sub_id": "60", "measures": [3, 4] },
    {
      "sub_id": "61",
      "measures": [1, 2, 3, 4, 10, 5, 6, 7, 12, 13, 15, 18, 19]
    },
    { "sub_id": "32", "measures": [1, 3, 4, 7, 21] },
    { "sub_id": "34", "measures": [11] },
    { "sub_id": "35", "measures": [1, 3, 4, 7] },
    { "sub_id": "49", "measures": [1, 3, 4, 7, 12] },
    { "sub_id": "56", "measures": [1, 3, 4, 7] },
    { "sub_id": "62", "measures": [1, 22, 23, 24] },
    { "sub_id": "63", "measures": [1, 16, 22, 23, 24, null] },
    { "sub_id": "64", "measures": [1, 3, 22, 23, 24] },
    { "sub_id": "65", "measures": [1, 3, 8, 22, 23, 24] },
    { "sub_id": "66", "measures": [1, 3, 22, 23, 24] },
    { "sub_id": "67", "measures": [1, 22, 23, 24] },
    { "sub_id": "68", "measures": [1, 22, 23, 24] },
    { "sub_id": "69", "measures": [1] },
    { "sub_id": "70", "measures": [1] },
    { "sub_id": "71", "measures": [1, 25, 22, 23, 24] },
    { "sub_id": "72", "measures": [1, 22, 23, 24, null] },
    { "sub_id": "73", "measures": [1, 22, 23, 24] },
    { "sub_id": "74", "measures": [1, 22, 23, 24] },
    { "sub_id": "75", "measures": [1, 3, 22, 23, 24] },
    { "sub_id": "76", "measures": [1, 3, 4, 26, 25, 23] },
    { "sub_id": "77", "measures": [1, 8] },
    { "sub_id": "78", "measures": [1, 3, 25, 23] },
    { "sub_id": "79", "measures": [1, 26, 25, 22, 23, 24, 3, 3, 8] },
    { "sub_id": "80", "measures": [1] },
    {
      "sub_id": "81",
      "measures": [1, 2, 11, 3, 4, 17, 5, 6, 12, 14, 8, 13, 27]
    },
    { "sub_id": "82", "measures": [1, 3, 5, 6, 13, 27, 28] },
    { "sub_id": "83", "measures": [17] },
    { "sub_id": "84", "measures": [1] },
    { "sub_id": "85", "measures": [1, 5] },
    { "sub_id": "86", "measures": [1, 3, 5, 6, 13] },
    { "sub_id": "87", "measures": [1, 3, 5, 12, 14, 13] },
    { "sub_id": "88", "measures": [1, 3, 4, 5] },
    { "sub_id": "89", "measures": [1, 2, 3, 4, 5, 6] },
    {
      "sub_id": "90",
      "measures": [1, 2, 11, 3, 4, 17, 5, 6, 12, 14, 8, 13, 27]
    },
    {
      "sub_id": "91",
      "measures": [1, 2, 3, 4, 29, 9, 10, 5, 12, 14, 30, 26, 15]
    },
    { "sub_id": "92", "measures": [1, 2, 5] },
    { "sub_id": "93", "measures": [1, 2, 3, 10, 12, 25] },
    { "sub_id": "94", "measures": [1, 2] },
    { "sub_id": "196", "measures": [1, 3, 7, 12] },
    { "sub_id": "95", "measures": [1, 2, 3, 4, 5, 7, 26] },
    { "sub_id": "96", "measures": [1, 2, 3, 7, 12, 26] },
    { "sub_id": "97", "measures": [1, 3, 7, 2, 26] },
    {
      "sub_id": "98",
      "measures": [1, 2, 3, 4, 29, 9, 10, 5, 7, 12, 14, 30, 26, 15]
    },
    { "sub_id": "99", "measures": [1, 9, 17, 10] },
    { "sub_id": "100", "measures": [1, 12] },
    { "sub_id": "101", "measures": [1, 2, 3, 4, 9, 17, 10, 7, 12] },
    { "sub_id": "102", "measures": [1, 2, 17] },
    { "sub_id": "103", "measures": [1, 2] },
    { "sub_id": "104", "measures": [1] },
    { "sub_id": "105", "measures": [1, 2, 4, 9, 17, 31] },
    { "sub_id": "106", "measures": [1, 2, 3, 9, 17, 10, 12, 16] },
    { "sub_id": "107", "measures": [1, 2, 4] },
    { "sub_id": "108", "measures": [1, 2, 9, 17, 12] },
    { "sub_id": "109", "measures": [1, 2, 9, 17, 32] },
    { "sub_id": "110", "measures": [1, 3, 9, 12, 32] },
    { "sub_id": "111", "measures": [1, 2] },
    { "sub_id": "112", "measures": [1] },
    { "sub_id": "113", "measures": [1, 2, 4, 9, 17] },
    { "sub_id": "114", "measures": [1, 2, 4, 9, 17] },
    { "sub_id": "115", "measures": [1, 2, 4, 9, 17, 12, 33] },
    { "sub_id": "116", "measures": [1, 3, 17, 10, 7, 12] },
    { "sub_id": "117", "measures": [1, 2, 3, 9, 17, 10, 5] },
    { "sub_id": "118", "measures": [1, 2, 17, 12, 34] },
    { "sub_id": "119", "measures": [1, 2, 3] },
    { "sub_id": "120", "measures": [1, 2, 9, 28] },
    { "sub_id": "121", "measures": [1, 17, 10, 5] },
    { "sub_id": "122", "measures": [1, 2] },
    {
      "sub_id": "123",
      "measures": [1, 2, 3, 4, 9, 17, 10, 5, 6, 7, 12, 32, 16, 34, 28, 31, 33]
    },
    { "sub_id": "124", "measures": [1, 2, 3, 13] },
    { "sub_id": "125", "measures": [1, 2] },
    { "sub_id": "126", "measures": [1, 2] },
    { "sub_id": "127", "measures": [1, 2] },
    { "sub_id": "128", "measures": [1, 2, 4] },
    { "sub_id": "129", "measures": [1, 2] },
    { "sub_id": "130", "measures": [1, 2] },
    { "sub_id": "131", "measures": [1, 2] },
    { "sub_id": "132", "measures": [1, 2] },
    { "sub_id": "133", "measures": [1, 2, 3, 34] },
    { "sub_id": "134", "measures": [1, 2] },
    { "sub_id": "135", "measures": [1, 2] },
    { "sub_id": "136", "measures": [1, 2] },
    { "sub_id": "137", "measures": [1, 2, 3, 4, 13, 34] },
    { "sub_id": "139", "measures": [1, 2] },
    { "sub_id": "140", "measures": [1, 2] },
    { "sub_id": "141", "measures": [1, 2] },
    { "sub_id": "142", "measures": [1, 2] },
    { "sub_id": "143", "measures": [1, 2, 35] },
    { "sub_id": "144", "measures": [1] },
    { "sub_id": "145", "measures": [1] },
    { "sub_id": "146", "measures": [1, 2] },
    { "sub_id": "147", "measures": [1, 2, 4] },
    { "sub_id": "148", "measures": [1, 2] },
    { "sub_id": "149", "measures": [1, 2, 28] },
    { "sub_id": "150", "measures": [1, 2] },
    { "sub_id": "151", "measures": [1, 2] },
    { "sub_id": "152", "measures": [1, 2, 34] },
    { "sub_id": "153", "measures": [1, 2, 34] },
    { "sub_id": "154", "measures": [1, 2, 34] },
    { "sub_id": "155", "measures": [1] },
    { "sub_id": "156", "measures": [1, 2, 5, 35] },
    { "sub_id": "157", "measures": [1, 2] },
    { "sub_id": "158", "measures": [1] },
    { "sub_id": "159", "measures": [1, 2, 28] },
    { "sub_id": "160", "measures": [1, 2] },
    { "sub_id": "161", "measures": [1, 2] },
    { "sub_id": "162", "measures": [1] },
    { "sub_id": "163", "measures": [1, 2, 4] },
    { "sub_id": "164", "measures": [1] },
    { "sub_id": "165", "measures": [1, 2, 4, 34, 28, 35] },
    { "sub_id": "166", "measures": [1, 14] },
    { "sub_id": "167", "measures": [1, 3, 14, 22] },
    { "sub_id": "168", "measures": [1, 3, 14] },
    { "sub_id": "169", "measures": [1, 3, 5, 7, 12, 8, 13, 36, 22] },
    { "sub_id": "170", "measures": [1, 14, 8] },
    { "sub_id": "171", "measures": [1, 3, 5, 7, 14, 13] },
    { "sub_id": "172", "measures": [1, 3, 5, 7, 12, 8, 13, 36, 22] },
    { "sub_id": "173", "measures": [1, 2, 3, 17, 10, 7, 12, 14, 16, 37] },
    { "sub_id": "174", "measures": [1, 2, 3, 9, 10, 7, 38] },
    { "sub_id": "175", "measures": [1, 2, 3, 4, 9, 17, 10, 6, 39, 16, 40] },
    { "sub_id": "176", "measures": [1, 2, 7, 12, 14, 32, 16, 34, 28, 33] },
    { "sub_id": "177", "measures": [1, 2, 7, 12, 14, 32, 16, 34, 28, 33] },
    { "sub_id": "178", "measures": [1, 2, 7, 12, 14, 32, 16, 34, 28, 33] },
    { "sub_id": "179", "measures": [1, 2, 7, 12, 14, 32, 16, 34, 28, 33] },
    { "sub_id": "180", "measures": [1, 2, 7, 12, 14, 32, 16, 34, 28, 33] },
    { "sub_id": "181", "measures": [1, 2, 7, 12, 14, 32, 16, 34, 28, 33] },
    { "sub_id": "182", "measures": [1, 2, 7, 12, 14, 32, 16, 34, 28, 33] },
    { "sub_id": "183", "measures": [1, 2, 7, 12, 14, 32, 16, 34, 28, 33] },
    { "sub_id": "184", "measures": [1, 2, 7, 12, 14, 32, 16, 34, 28, 33] },
    { "sub_id": "185", "measures": [1, 2, 7, 12, 14, 32, 16, 34, 28, 33] },
    { "sub_id": "186", "measures": [1, 3, 4, 6, 7, 12] },
    { "sub_id": "187", "measures": [1, 3, 4, 29, 9, 17, 6, 39, 7, 12, 26] },
    { "sub_id": "188", "measures": [1, 3, 4, 7] },
    { "sub_id": "189", "measures": [1, 3, 9, 17, 7, 7, 12, 41] },
    { "sub_id": "190", "measures": [1] },
    { "sub_id": "191", "measures": [1, 2] },
    { "sub_id": "192", "measures": [1, 2, 4, 9] },
    { "sub_id": "193", "measures": [1, 2] },
    { "sub_id": "194", "measures": [1, 42] },
    { "sub_id": "195", "measures": [1, 2] }
  ]
}
